Generic_fifo1_sc_a/waves.vcd
$date
	Wed Jan 22 14:48:46 2025
$end
$version
	Icarus Verilog
$end
$timescale
	100ps
$end
$scope module test $end
$var wire 8 ! dout [7:0] $end
$var wire 8 " dout2 [7:0] $end
$var wire 1 # empty $end
$var wire 1 $ empty2 $end
$var wire 1 % full $end
$var wire 1 & full2 $end
$var reg 1 ' clk $end
$var reg 1 ( clr $end
$var reg 1 ) clr2 $end
$var reg 8 * din [7:0] $end
$var reg 8 + din2 [7:0] $end
$var reg 1 , rd_clk $end
$var reg 1 - re $end
$var reg 1 . re2 $end
$var reg 1 / rst $end
$var reg 1 0 we $end
$var reg 1 1 we2 $end
$var reg 1 2 wr_clk $end
$var integer 32 3 n [31:0] $end
$var real 1 4 rcp $end
$var integer 32 5 rdp [31:0] $end
$var integer 32 6 rwd [31:0] $end
$var integer 32 7 wrp [31:0] $end
$var integer 32 8 x [31:0] $end
$scope task rd_dc $end
$var integer 32 9 cnt [31:0] $end
$var integer 32 : n [31:0] $end
$upscope $end
$scope task rd_sc $end
$var integer 32 ; cnt [31:0] $end
$upscope $end
$scope task rd_wr_dc $end
$var integer 32 < n [31:0] $end
$upscope $end
$scope task rd_wr_sc $end
$upscope $end
$scope task test_sc_fifo $end
$upscope $end
$scope task wr_dc $end
$var integer 32 = cnt [31:0] $end
$var integer 32 > n [31:0] $end
$upscope $end
$scope task wr_sc $end
$var integer 32 ? cnt [31:0] $end
$upscope $end
$upscope $end
$enddefinitions $end
$comment Show the parameter values. $end
$dumpall
$end
#0
$dumpvars
bx ?
bx >
bx =
bx <
bx ;
bx :
bx 9
bx 8
b0 7
b0 6
b0 5
r5 4
bx 3
02
01
00
1/
0.
0-
0,
bx +
bx *
0)
0(
0'
z&
z%
z$
z#
bz "
bz !
$end
#50
1,
1'
#100
0,
0'
#150
1,
1'
#200
0,
0'
#250
1,
1'
#300
0,
0'
#350
1,
1'
#400
0,
0'
#450
1,
1'
#500
0,
0'
12
#550
1,
1'
#600
0,
0'
#650
1,
1'
#700
0,
0'
#750
1,
1'
#800
0,
0'
#850
1,
1'
#900
0,
0'
#950
0/
1,
1'
#1000
0,
0'
02
#1050
1,
1'
#1100
0,
0'
#1150
1,
1'
#1200
0,
0'
#1250
1,
1'
#1300
0,
0'
#1350
1,
1'
#1400
0,
0'
#1450
1,
1'
#1500
0,
0'
12
#1550
1,
1'
#1600
0,
0'
#1650
1,
1'
#1700
0,
0'
#1750
1,
1'
#1800
0,
0'
#1850
1,
1'
#1900
0,
0'
#1950
1/
1,
1'
#2000
0,
0'
02
#2050
1,
1'
#2100
0,
0'
#2150
1,
1'
#2200
0,
0'
#2250
1,
1'
#2300
0,
0'
#2350
1,
1'
#2400
0,
0'
#2450
1,
1'
#2500
0,
0'
12
#2550
1,
1'
#2600
0,
0'
#2650
1,
1'
#2700
0,
0'
#2750
1,
1'
#2800
0,
0'
#2850
1,
1'
#2900
0,
0'
#2950
b0 8
1,
1'
#3000
0,
0'
02
#3050
1,
1'
#3100
0,
0'
#3150
1,
1'
#3200
0,
0'
#3250
1,
1'
#3300
0,
0'
#3350
1,
1'
#3400
0,
0'
#3450
1,
1'
#3500
0,
0'
12
#3550
1,
1'
#3600
0,
0'
#3650
1,
1'
#3700
0,
0'
#3750
1,
1'
#3800
0,
0'
#3850
1,
1'
#3900
0,
0'
#3950
b0 3
1,
1'
#4000
0,
0'
02
#4050
1,
1'
#4060
b100100 *
10
#4100
0,
0'
#4150
1,
1'
#4160
b1 3
1-
bx *
00
#4200
0,
0'
#4250
1,
1'
#4260
b10000001 *
10
0-
#4300
0,
0'
#4350
1,
1'
#4360
b10 3
1-
bx *
00
#4400
0,
0'
#4450
1,
1'
#4460
b1001 *
10
0-
#4500
0,
0'
12
#4550
1,
1'
#4560
b11 3
1-
bx *
00
#4600
0,
0'
#4650
1,
1'
#4660
b1100011 *
10
0-
#4700
0,
0'
#4750
1,
1'
#4760
b100 3
1-
bx *
00
#4800
0,
0'
#4850
1,
1'
#4860
b1101 *
10
0-
#4900
0,
0'
#4950
1,
1'
#4960
b101 3
1-
bx *
00
#5000
0,
0'
02
#5050
1,
1'
#5060
b10001101 *
10
0-
#5100
0,
0'
#5150
1,
1'
#5160
b110 3
1-
bx *
00
#5200
0,
0'
#5250
1,
1'
#5260
b1100101 *
10
0-
#5300
0,
0'
#5350
1,
1'
#5360
b111 3
1-
bx *
00
#5400
0,
0'
#5450
1,
1'
#5460
b10010 *
10
0-
#5500
0,
0'
12
#5550
1,
1'
#5560
b1000 3
1-
bx *
00
#5600
0,
0'
#5650
1,
1'
#5660
b1 *
10
0-
#5700
0,
0'
#5750
1,
1'
#5760
b1001 3
1-
bx *
00
#5800
0,
0'
#5850
1,
1'
#5860
b1101 *
10
0-
#5900
0,
0'
#5950
1,
1'
#5960
b1010 3
1-
bx *
00
#6000
0,
0'
02
#6050
1,
1'
#6060
0-
#6100
0,
0'
#6150
1,
1'
#6200
0,
0'
#6250
1,
1'
#6300
0,
0'
#6350
1,
1'
#6400
0,
0'
#6450
1,
1'
#6500
0,
0'
12
#6550
1,
1'
#6600
0,
0'
#6650
1,
1'
#6700
0,
0'
#6750
1,
1'
#6800
0,
0'
#6850
1,
1'
#6900
0,
0'
#6950
1,
1'
#7000
0,
0'
02
#7050
b0 3
1,
1'
#7100
0,
0'
#7150
1,
1'
#7160
b1110110 *
10
#7200
0,
0'
#7250
1,
1'
#7260
b111101 *
#7300
0,
0'
#7350
1,
1'
#7360
1-
bx *
00
#7400
0,
0'
#7450
1,
1'
#7500
0,
0'
12
#7550
1,
1'
#7560
b1 3
0-
#7600
0,
0'
#7650
1,
1'
#7660
b11101101 *
10
#7700
0,
0'
#7750
1,
1'
#7760
b10001100 *
#7800
0,
0'
#7850
1,
1'
#7860
1-
bx *
00
#7900
0,
0'
#7950
1,
1'
#8000
0,
0'
02
#8050
1,
1'
#8060
b10 3
0-
#8100
0,
0'
#8150
1,
1'
#8160
b11111001 *
10
#8200
0,
0'
#8250
1,
1'
#8260
b11000110 *
#8300
0,
0'
#8350
1,
1'
#8360
1-
bx *
00
#8400
0,
0'
#8450
1,
1'
#8500
0,
0'
12
#8550
1,
1'
#8560
b11 3
0-
#8600
0,
0'
#8650
1,
1'
#8660
b11000101 *
10
#8700
0,
0'
#8750
1,
1'
#8760
b10101010 *
#8800
0,
0'
#8850
1,
1'
#8860
1-
bx *
00
#8900
0,
0'
#8950
1,
1'
#9000
0,
0'
02
#9050
1,
1'
#9060
b100 3
0-
#9100
0,
0'
#9150
1,
1'
#9160
b11100101 *
10
#9200
0,
0'
#9250
1,
1'
#9260
b1110111 *
#9300
0,
0'
#9350
1,
1'
#9360
1-
bx *
00
#9400
0,
0'
#9450
1,
1'
#9500
0,
0'
12
#9550
1,
1'
#9560
b101 3
0-
#9600
0,
0'
#9650
1,
1'
#9660
b10010 *
10
#9700
0,
0'
#9750
1,
1'
#9760
b10001111 *
#9800
0,
0'
#9850
1,
1'
#9860
1-
bx *
00
#9900
0,
0'
#9950
1,
1'
#10000
0,
0'
02
#10050
1,
1'
#10060
b110 3
0-
#10100
0,
0'
#10150
1,
1'
#10160
b11110010 *
10
#10200
0,
0'
#10250
1,
1'
#10260
b11001110 *
#10300
0,
0'
#10350
1,
1'
#10360
1-
bx *
00
#10400
0,
0'
#10450
1,
1'
#10500
0,
0'
12
#10550
1,
1'
#10560
b111 3
0-
#10600
0,
0'
#10650
1,
1'
#10660
b11101000 *
10
#10700
0,
0'
#10750
1,
1'
#10760
b11000101 *
#10800
0,
0'
#10850
1,
1'
#10860
1-
bx *
00
#10900
0,
0'
#10950
1,
1'
#11000
0,
0'
02
#11050
1,
1'
#11060
b1000 3
0-
#11100
0,
0'
#11150
1,
1'
#11160
b1011100 *
10
#11200
0,
0'
#11250
1,
1'
#11260
b10111101 *
#11300
0,
0'
#11350
1,
1'
#11360
1-
bx *
00
#11400
0,
0'
#11450
1,
1'
#11500
0,
0'
12
#11550
1,
1'
#11560
b1001 3
0-
#11600
0,
0'
#11650
1,
1'
#11660
b101101 *
10
#11700
0,
0'
#11750
1,
1'
#11760
b1100101 *
#11800
0,
0'
#11850
1,
1'
#11860
1-
bx *
00
#11900
0,
0'
#11950
1,
1'
#12000
0,
0'
02
#12050
1,
1'
#12060
b0 3
0-
#12100
0,
0'
#12150
1,
1'
#12160
b1100011 *
10
#12200
0,
0'
#12250
1,
1'
#12260
b1010 *
#12300
0,
0'
#12350
1,
1'
#12360
b10000000 *
#12400
0,
0'
#12450
1,
1'
#12460
1-
bx *
00
#12500
0,
0'
12
#12550
1,
1'
#12600
0,
0'
#12650
1,
1'
#12700
0,
0'
#12750
1,
1'
#12760
b1 3
0-
#12800
0,
0'
#12850
1,
1'
#12860
b100000 *
10
#12900
0,
0'
#12950
1,
1'
#12960
b10101010 *
#13000
0,
0'
02
#13050
1,
1'
#13060
b10011101 *
#13100
0,
0'
#13150
1,
1'
#13160
1-
bx *
00
#13200
0,
0'
#13250
1,
1'
#13300
0,
0'
#13350
1,
1'
#13400
0,
0'
#13450
1,
1'
#13460
b10 3
0-
#13500
0,
0'
12
#13550
1,
1'
#13560
b10010110 *
10
#13600
0,
0'
#13650
1,
1'
#13660
b10011 *
#13700
0,
0'
#13750
1,
1'
#13760
b1101 *
#13800
0,
0'
#13850
1,
1'
#13860
1-
bx *
00
#13900
0,
0'
#13950
1,
1'
#14000
0,
0'
02
#14050
1,
1'
#14100
0,
0'
#14150
1,
1'
#14160
b11 3
0-
#14200
0,
0'
#14250
1,
1'
#14260
b1010011 *
10
#14300
0,
0'
#14350
1,
1'
#14360
b1101011 *
#14400
0,
0'
#14450
1,
1'
#14460
b11010101 *
#14500
0,
0'
12
#14550
1,
1'
#14560
1-
bx *
00
#14600
0,
0'
#14650
1,
1'
#14700
0,
0'
#14750
1,
1'
#14800
0,
0'
#14850
1,
1'
#14860
b100 3
0-
#14900
0,
0'
#14950
1,
1'
#14960
b10 *
10
#15000
0,
0'
02
#15050
1,
1'
#15060
b10101110 *
#15100
0,
0'
#15150
1,
1'
#15160
b11101 *
#15200
0,
0'
#15250
1,
1'
#15260
1-
bx *
00
#15300
0,
0'
#15350
1,
1'
#15400
0,
0'
#15450
1,
1'
#15500
0,
0'
12
#15550
1,
1'
#15560
b101 3
0-
#15600
0,
0'
#15650
1,
1'
#15660
b11001111 *
10
#15700
0,
0'
#15750
1,
1'
#15760
b100011 *
#15800
0,
0'
#15850
1,
1'
#15860
b1010 *
#15900
0,
0'
#15950
1,
1'
#15960
1-
bx *
00
#16000
0,
0'
02
#16050
1,
1'
#16100
0,
0'
#16150
1,
1'
#16200
0,
0'
#16250
1,
1'
#16260
b110 3
0-
#16300
0,
0'
#16350
1,
1'
#16360
b11001010 *
10
#16400
0,
0'
#16450
1,
1'
#16460
b111100 *
#16500
0,
0'
12
#16550
1,
1'
#16560
b11110010 *
#16600
0,
0'
#16650
1,
1'
#16660
1-
bx *
00
#16700
0,
0'
#16750
1,
1'
#16800
0,
0'
#16850
1,
1'
#16900
0,
0'
#16950
1,
1'
#16960
b111 3
0-
#17000
0,
0'
02
#17050
1,
1'
#17060
b10001010 *
10
#17100
0,
0'
#17150
1,
1'
#17160
b1000001 *
#17200
0,
0'
#17250
1,
1'
#17260
b11011000 *
#17300
0,
0'
#17350
1,
1'
#17360
1-
bx *
00
#17400
0,
0'
#17450
1,
1'
#17500
0,
0'
12
#17550
1,
1'
#17600
0,
0'
#17650
1,
1'
#17660
b1000 3
0-
#17700
0,
0'
#17750
1,
1'
#17760
b1111000 *
10
#17800
0,
0'
#17850
1,
1'
#17860
b10001001 *
#17900
0,
0'
#17950
1,
1'
#17960
b11101011 *
#18000
0,
0'
02
#18050
1,
1'
#18060
1-
bx *
00
#18100
0,
0'
#18150
1,
1'
#18200
0,
0'
#18250
1,
1'
#18300
0,
0'
#18350
1,
1'
#18360
b1001 3
0-
#18400
0,
0'
#18450
1,
1'
#18460
b10110110 *
10
#18500
0,
0'
12
#18550
1,
1'
#18560
b11000110 *
#18600
0,
0'
#18650
1,
1'
#18660
b10101110 *
#18700
0,
0'
#18750
1,
1'
#18760
1-
bx *
00
#18800
0,
0'
#18850
1,
1'
#18900
0,
0'
#18950
1,
1'
#19000
0,
0'
02
#19050
1,
1'
#19060
b0 3
0-
#19100
0,
0'
#19150
1,
1'
#19160
b10111100 *
10
#19200
0,
0'
#19250
1,
1'
#19260
b101010 *
#19300
0,
0'
#19350
1,
1'
#19360
b1011 *
#19400
0,
0'
#19450
1,
1'
#19460
b1110001 *
#19500
0,
0'
12
#19550
1,
1'
#19560
1-
bx *
00
#19600
0,
0'
#19650
1,
1'
#19700
0,
0'
#19750
1,
1'
#19800
0,
0'
#19850
1,
1'
#19900
0,
0'
#19950
1,
1'
#19960
b1 3
0-
#20000
0,
0'
02
#20050
1,
1'
#20060
b10000101 *
10
#20100
0,
0'
#20150
1,
1'
#20160
b1001111 *
#20200
0,
0'
#20250
1,
1'
#20260
b111011 *
#20300
0,
0'
#20350
1,
1'
#20360
b111010 *
#20400
0,
0'
#20450
1,
1'
#20460
1-
bx *
00
#20500
0,
0'
12
#20550
1,
1'
#20600
0,
0'
#20650
1,
1'
#20700
0,
0'
#20750
1,
1'
#20800
0,
0'
#20850
1,
1'
#20860
b10 3
0-
#20900
0,
0'
#20950
1,
1'
#20960
b1111110 *
10
#21000
0,
0'
02
#21050
1,
1'
#21060
b10101 *
#21100
0,
0'
#21150
1,
1'
#21160
b11110001 *
#21200
0,
0'
#21250
1,
1'
#21260
b11011001 *
#21300
0,
0'
#21350
1,
1'
#21360
1-
bx *
00
#21400
0,
0'
#21450
1,
1'
#21500
0,
0'
12
#21550
1,
1'
#21600
0,
0'
#21650
1,
1'
#21700
0,
0'
#21750
1,
1'
#21760
b11 3
0-
#21800
0,
0'
#21850
1,
1'
#21860
b1100010 *
10
#21900
0,
0'
#21950
1,
1'
#21960
b1001100 *
#22000
0,
0'
02
#22050
1,
1'
#22060
b10011111 *
#22100
0,
0'
#22150
1,
1'
#22160
b10001111 *
#22200
0,
0'
#22250
1,
1'
#22260
1-
bx *
00
#22300
0,
0'
#22350
1,
1'
#22400
0,
0'
#22450
1,
1'
#22500
0,
0'
12
#22550
1,
1'
#22600
0,
0'
#22650
1,
1'
#22660
b100 3
0-
#22700
0,
0'
#22750
1,
1'
#22760
b11111000 *
10
#22800
0,
0'
#22850
1,
1'
#22860
b10110111 *
#22900
0,
0'
#22950
1,
1'
#22960
b10011111 *
#23000
0,
0'
02
#23050
1,
1'
#23060
b1011100 *
#23100
0,
0'
#23150
1,
1'
#23160
1-
bx *
00
#23200
0,
0'
#23250
1,
1'
#23300
0,
0'
#23350
1,
1'
#23400
0,
0'
#23450
1,
1'
#23500
0,
0'
12
#23550
1,
1'
#23560
b101 3
0-
#23600
0,
0'
#23650
1,
1'
#23660
b1011011 *
10
#23700
0,
0'
#23750
1,
1'
#23760
b10001001 *
#23800
0,
0'
#23850
1,
1'
#23860
b1001001 *
#23900
0,
0'
#23950
1,
1'
#23960
b11010000 *
#24000
0,
0'
02
#24050
1,
1'
#24060
1-
bx *
00
#24100
0,
0'
#24150
1,
1'
#24200
0,
0'
#24250
1,
1'
#24300
0,
0'
#24350
1,
1'
#24400
0,
0'
#24450
1,
1'
#24460
b110 3
0-
#24500
0,
0'
12
#24550
1,
1'
#24560
b11010111 *
10
#24600
0,
0'
#24650
1,
1'
#24660
b1010001 *
#24700
0,
0'
#24750
1,
1'
#24760
b10010110 *
#24800
0,
0'
#24850
1,
1'
#24860
b1100 *
#24900
0,
0'
#24950
1,
1'
#24960
1-
bx *
00
#25000
0,
0'
02
#25050
1,
1'
#25100
0,
0'
#25150
1,
1'
#25200
0,
0'
#25250
1,
1'
#25300
0,
0'
#25350
1,
1'
#25360
b111 3
0-
#25400
0,
0'
#25450
1,
1'
#25460
b11000010 *
10
#25500
0,
0'
12
#25550
1,
1'
#25560
b11001000 *
#25600
0,
0'
#25650
1,
1'
#25660
b1110111 *
#25700
0,
0'
#25750
1,
1'
#25760
b111101 *
#25800
0,
0'
#25850
1,
1'
#25860
1-
bx *
00
#25900
0,
0'
#25950
1,
1'
#26000
0,
0'
02
#26050
1,
1'
#26100
0,
0'
#26150
1,
1'
#26200
0,
0'
#26250
1,
1'
#26260
b1000 3
0-
#26300
0,
0'
#26350
1,
1'
#26360
b10010 *
10
#26400
0,
0'
#26450
1,
1'
#26460
b1111110 *
#26500
0,
0'
12
#26550
1,
1'
#26560
b1101101 *
#26600
0,
0'
#26650
1,
1'
#26660
b111001 *
#26700
0,
0'
#26750
1,
1'
#26760
1-
bx *
00
#26800
0,
0'
#26850
1,
1'
#26900
0,
0'
#26950
1,
1'
#27000
0,
0'
02
#27050
1,
1'
#27100
0,
0'
#27150
1,
1'
#27160
b1001 3
0-
#27200
0,
0'
#27250
1,
1'
#27260
b11111 *
10
#27300
0,
0'
#27350
1,
1'
#27360
b11010011 *
#27400
0,
0'
#27450
1,
1'
#27460
b10000101 *
#27500
0,
0'
12
#27550
1,
1'
#27560
b1111000 *
#27600
0,
0'
#27650
1,
1'
#27660
1-
bx *
00
#27700
0,
0'
#27750
1,
1'
#27800
0,
0'
#27850
1,
1'
#27900
0,
0'
#27950
1,
1'
#28000
0,
0'
02
#28050
1,
1'
#28060
b1 ?
b1010 3
0-
#28100
0,
0'
#28150
b0 3
1,
1'
#28160
b1011011 *
10
#28200
0,
0'
#28250
1,
1'
#28260
b1 8
b1 3
bx *
00
#28300
0,
0'
#28350
1,
1'
#28400
0,
0'
#28450
1,
1'
#28500
0,
0'
12
#28550
1,
1'
#28600
0,
0'
#28650
1,
1'
#28700
0,
0'
#28750
1,
1'
#28800
0,
0'
#28850
1,
1'
#28900
0,
0'
#28950
1,
1'
#29000
0,
0'
02
#29050
1,
1'
#29100
0,
0'
#29150
1,
1'
#29200
0,
0'
#29250
b0 3
1,
1'
#29300
0,
0'
#29350
1,
1'
#29360
b1001001 *
10
#29400
0,
0'
#29450
1,
1'
#29460
b1 3
1-
bx *
00
#29500
0,
0'
12
#29550
1,
1'
#29560
b111111 *
10
0-
#29600
0,
0'
#29650
1,
1'
#29660
b10 3
1-
bx *
00
#29700
0,
0'
#29750
1,
1'
#29760
b101010 *
10
0-
#29800
0,
0'
#29850
1,
1'
#29860
b11 3
1-
bx *
00
#29900
0,
0'
#29950
1,
1'
#29960
b1011000 *
10
0-
#30000
0,
0'
02
#30050
1,
1'
#30060
b100 3
1-
bx *
00
#30100
0,
0'
#30150
1,
1'
#30160
b10000110 *
10
0-
#30200
0,
0'
#30250
1,
1'
#30260
b101 3
1-
bx *
00
#30300
0,
0'
#30350
1,
1'
#30360
b10001110 *
10
0-
#30400
0,
0'
#30450
1,
1'
#30460
b110 3
1-
bx *
00
#30500
0,
0'
12
#30550
1,
1'
#30560
b10011100 *
10
0-
#30600
0,
0'
#30650
1,
1'
#30660
b111 3
1-
bx *
00
#30700
0,
0'
#30750
1,
1'
#30760
b11111010 *
10
0-
#30800
0,
0'
#30850
1,
1'
#30860
b1000 3
1-
bx *
00
#30900
0,
0'
#30950
1,
1'
#30960
b100110 *
10
0-
#31000
0,
0'
02
#31050
1,
1'
#31060
b1001 3
1-
bx *
00
#31100
0,
0'
#31150
1,
1'
#31160
b1110011 *
10
0-
#31200
0,
0'
#31250
1,
1'
#31260
b1010 3
1-
bx *
00
#31300
0,
0'
#31350
1,
1'
#31360
0-
#31400
0,
0'
#31450
1,
1'
#31500
0,
0'
12
#31550
1,
1'
#31600
0,
0'
#31650
1,
1'
#31700
0,
0'
#31750
1,
1'
#31800
0,
0'
#31850
1,
1'
#31900
0,
0'
#31950
1,
1'
#32000
0,
0'
02
#32050
1,
1'
#32100
0,
0'
#32150
1,
1'
#32200
0,
0'
#32250
1,
1'
#32300
0,
0'
#32350
b0 3
1,
1'
#32400
0,
0'
#32450
1,
1'
#32460
b10100011 *
10
#32500
0,
0'
12
#32550
1,
1'
#32560
b101111 *
#32600
0,
0'
#32650
1,
1'
#32660
1-
bx *
00
#32700
0,
0'
#32750
1,
1'
#32800
0,
0'
#32850
1,
1'
#32860
b1 3
0-
#32900
0,
0'
#32950
1,
1'
#32960
b10110011 *
10
#33000
0,
0'
02
#33050
1,
1'
#33060
b1011111 *
#33100
0,
0'
#33150
1,
1'
#33160
1-
bx *
00
#33200
0,
0'
#33250
1,
1'
#33300
0,
0'
#33350
1,
1'
#33360
b10 3
0-
#33400
0,
0'
#33450
1,
1'
#33460
b1000100 *
10
#33500
0,
0'
12
#33550
1,
1'
#33560
b11110111 *
#33600
0,
0'
#33650
1,
1'
#33660
1-
bx *
00
#33700
0,
0'
#33750
1,
1'
#33800
0,
0'
#33850
1,
1'
#33860
b11 3
0-
#33900
0,
0'
#33950
1,
1'
#33960
b11001011 *
10
#34000
0,
0'
02
#34050
1,
1'
#34060
b11100110 *
#34100
0,
0'
#34150
1,
1'
#34160
1-
bx *
00
#34200
0,
0'
#34250
1,
1'
#34300
0,
0'
#34350
1,
1'
#34360
b100 3
0-
#34400
0,
0'
#34450
1,
1'
#34460
b1011010 *
10
#34500
0,
0'
12
#34550
1,
1'
#34560
b101001 *
#34600
0,
0'
#34650
1,
1'
#34660
1-
bx *
00
#34700
0,
0'
#34750
1,
1'
#34800
0,
0'
#34850
1,
1'
#34860
b101 3
0-
#34900
0,
0'
#34950
1,
1'
#34960
b11101101 *
10
#35000
0,
0'
02
#35050
1,
1'
#35060
b11011010 *
#35100
0,
0'
#35150
1,
1'
#35160
1-
bx *
00
#35200
0,
0'
#35250
1,
1'
#35300
0,
0'
#35350
1,
1'
#35360
b110 3
0-
#35400
0,
0'
#35450
1,
1'
#35460
b1100101 *
10
#35500
0,
0'
12
#35550
1,
1'
#35560
b10110101 *
#35600
0,
0'
#35650
1,
1'
#35660
1-
bx *
00
#35700
0,
0'
#35750
1,
1'
#35800
0,
0'
#35850
1,
1'
#35860
b111 3
0-
#35900
0,
0'
#35950
1,
1'
#35960
b11011111 *
10
#36000
0,
0'
02
#36050
1,
1'
#36060
b1111001 *
#36100
0,
0'
#36150
1,
1'
#36160
1-
bx *
00
#36200
0,
0'
#36250
1,
1'
#36300
0,
0'
#36350
1,
1'
#36360
b1000 3
0-
#36400
0,
0'
#36450
1,
1'
#36460
b1000100 *
10
#36500
0,
0'
12
#36550
1,
1'
#36560
b11010000 *
#36600
0,
0'
#36650
1,
1'
#36660
1-
bx *
00
#36700
0,
0'
#36750
1,
1'
#36800
0,
0'
#36850
1,
1'
#36860
b1001 3
0-
#36900
0,
0'
#36950
1,
1'
#36960
b101010 *
10
#37000
0,
0'
02
#37050
1,
1'
#37060
b10101011 *
#37100
0,
0'
#37150
1,
1'
#37160
1-
bx *
00
#37200
0,
0'
#37250
1,
1'
#37300
0,
0'
#37350
1,
1'
#37360
b0 3
0-
#37400
0,
0'
#37450
1,
1'
#37460
b1110 *
10
#37500
0,
0'
12
#37550
1,
1'
#37560
b11011100 *
#37600
0,
0'
#37650
1,
1'
#37660
b10011010 *
#37700
0,
0'
#37750
1,
1'
#37760
1-
bx *
00
#37800
0,
0'
#37850
1,
1'
#37900
0,
0'
#37950
1,
1'
#38000
0,
0'
02
#38050
1,
1'
#38060
b1 3
0-
#38100
0,
0'
#38150
1,
1'
#38160
b11111101 *
10
#38200
0,
0'
#38250
1,
1'
#38260
b11000011 *
#38300
0,
0'
#38350
1,
1'
#38360
b1010110 *
#38400
0,
0'
#38450
1,
1'
#38460
1-
bx *
00
#38500
0,
0'
12
#38550
1,
1'
#38600
0,
0'
#38650
1,
1'
#38700
0,
0'
#38750
1,
1'
#38760
b10 3
0-
#38800
0,
0'
#38850
1,
1'
#38860
b1001110 *
10
#38900
0,
0'
#38950
1,
1'
#38960
b1100111 *
#39000
0,
0'
02
#39050
1,
1'
#39060
b1010 *
#39100
0,
0'
#39150
1,
1'
#39160
1-
bx *
00
#39200
0,
0'
#39250
1,
1'
#39300
0,
0'
#39350
1,
1'
#39400
0,
0'
#39450
1,
1'
#39460
b11 3
0-
#39500
0,
0'
12
#39550
1,
1'
#39560
b10110110 *
10
#39600
0,
0'
#39650
1,
1'
#39660
b111000 *
#39700
0,
0'
#39750
1,
1'
#39760
b1111001 *
#39800
0,
0'
#39850
1,
1'
#39860
1-
bx *
00
#39900
0,
0'
#39950
1,
1'
#40000
0,
0'
02
#40050
1,
1'
#40100
0,
0'
#40150
1,
1'
#40160
b100 3
0-
#40200
0,
0'
#40250
1,
1'
#40260
b10111000 *
10
#40300
0,
0'
#40350
1,
1'
#40360
b10010100 *
#40400
0,
0'
#40450
1,
1'
#40460
b10010011 *
#40500
0,
0'
12
#40550
1,
1'
#40560
1-
bx *
00
#40600
0,
0'
#40650
1,
1'
#40700
0,
0'
#40750
1,
1'
#40800
0,
0'
#40850
1,
1'
#40860
b101 3
0-
#40900
0,
0'
#40950
1,
1'
#40960
b100 *
10
#41000
0,
0'
02
#41050
1,
1'
#41060
b1011001 *
#41100
0,
0'
#41150
1,
1'
#41160
b11011011 *
#41200
0,
0'
#41250
1,
1'
#41260
1-
bx *
00
#41300
0,
0'
#41350
1,
1'
#41400
0,
0'
#41450
1,
1'
#41500
0,
0'
12
#41550
1,
1'
#41560
b110 3
0-
#41600
0,
0'
#41650
1,
1'
#41660
b1001101 *
10
#41700
0,
0'
#41750
1,
1'
#41760
b11011001 *
#41800
0,
0'
#41850
1,
1'
#41860
b1101101 *
#41900
0,
0'
#41950
1,
1'
#41960
1-
bx *
00
#42000
0,
0'
02
#42050
1,
1'
#42100
0,
0'
#42150
1,
1'
#42200
0,
0'
#42250
1,
1'
#42260
b111 3
0-
#42300
0,
0'
#42350
1,
1'
#42360
b1110110 *
10
#42400
0,
0'
#42450
1,
1'
#42460
b11001010 *
#42500
0,
0'
12
#42550
1,
1'
#42560
b10110110 *
#42600
0,
0'
#42650
1,
1'
#42660
1-
bx *
00
#42700
0,
0'
#42750
1,
1'
#42800
0,
0'
#42850
1,
1'
#42900
0,
0'
#42950
1,
1'
#42960
b1000 3
0-
#43000
0,
0'
02
#43050
1,
1'
#43060
b10010101 *
10
#43100
0,
0'
#43150
1,
1'
#43160
b1000110 *
#43200
0,
0'
#43250
1,
1'
#43260
b100 *
#43300
0,
0'
#43350
1,
1'
#43360
1-
bx *
00
#43400
0,
0'
#43450
1,
1'
#43500
0,
0'
12
#43550
1,
1'
#43600
0,
0'
#43650
1,
1'
#43660
b1001 3
0-
#43700
0,
0'
#43750
1,
1'
#43760
b11110111 *
10
#43800
0,
0'
#43850
1,
1'
#43860
b1101001 *
#43900
0,
0'
#43950
1,
1'
#43960
b10110100 *
#44000
0,
0'
02
#44050
1,
1'
#44060
1-
bx *
00
#44100
0,
0'
#44150
1,
1'
#44200
0,
0'
#44250
1,
1'
#44300
0,
0'
#44350
1,
1'
#44360
b0 3
0-
#44400
0,
0'
#44450
1,
1'
#44460
b10001000 *
10
#44500
0,
0'
12
#44550
1,
1'
#44560
b101000 *
#44600
0,
0'
#44650
1,
1'
#44660
b101101 *
#44700
0,
0'
#44750
1,
1'
#44760
b11000111 *
#44800
0,
0'
#44850
1,
1'
#44860
1-
bx *
00
#44900
0,
0'
#44950
1,
1'
#45000
0,
0'
02
#45050
1,
1'
#45100
0,
0'
#45150
1,
1'
#45200
0,
0'
#45250
1,
1'
#45260
b1 3
0-
#45300
0,
0'
#45350
1,
1'
#45360
b101110 *
10
#45400
0,
0'
#45450
1,
1'
#45460
b1000 *
#45500
0,
0'
12
#45550
1,
1'
#45560
b11100 *
#45600
0,
0'
#45650
1,
1'
#45660
b11111101 *
#45700
0,
0'
#45750
1,
1'
#45760
1-
bx *
00
#45800
0,
0'
#45850
1,
1'
#45900
0,
0'
#45950
1,
1'
#46000
0,
0'
02
#46050
1,
1'
#46100
0,
0'
#46150
1,
1'
#46160
b10 3
0-
#46200
0,
0'
#46250
1,
1'
#46260
b101001 *
10
#46300
0,
0'
#46350
1,
1'
#46360
b11100 *
#46400
0,
0'
#46450
1,
1'
#46460
b10000110 *
#46500
0,
0'
12
#46550
1,
1'
#46560
b11011010 *
#46600
0,
0'
#46650
1,
1'
#46660
1-
bx *
00
#46700
0,
0'
#46750
1,
1'
#46800
0,
0'
#46850
1,
1'
#46900
0,
0'
#46950
1,
1'
#47000
0,
0'
02
#47050
1,
1'
#47060
b11 3
0-
#47100
0,
0'
#47150
1,
1'
#47160
b111101 *
10
#47200
0,
0'
#47250
1,
1'
#47260
b1100110 *
#47300
0,
0'
#47350
1,
1'
#47360
b1110000 *
#47400
0,
0'
#47450
1,
1'
#47460
b1110011 *
#47500
0,
0'
12
#47550
1,
1'
#47560
1-
bx *
00
#47600
0,
0'
#47650
1,
1'
#47700
0,
0'
#47750
1,
1'
#47800
0,
0'
#47850
1,
1'
#47900
0,
0'
#47950
1,
1'
#47960
b100 3
0-
#48000
0,
0'
02
#48050
1,
1'
#48060
b10111010 *
10
#48100
0,
0'
#48150
1,
1'
#48160
b1011110 *
#48200
0,
0'
#48250
1,
1'
#48260
b11111010 *
#48300
0,
0'
#48350
1,
1'
#48360
b11010101 *
#48400
0,
0'
#48450
1,
1'
#48460
1-
bx *
00
#48500
0,
0'
12
#48550
1,
1'
#48600
0,
0'
#48650
1,
1'
#48700
0,
0'
#48750
1,
1'
#48800
0,
0'
#48850
1,
1'
#48860
b101 3
0-
#48900
0,
0'
#48950
1,
1'
#48960
b11010 *
10
#49000
0,
0'
02
#49050
1,
1'
#49060
b10111001 *
#49100
0,
0'
#49150
1,
1'
#49160
b110111 *
#49200
0,
0'
#49250
1,
1'
#49260
b10010110 *
#49300
0,
0'
#49350
1,
1'
#49360
1-
bx *
00
#49400
0,
0'
